…
    ## [1] "R version 4.1.0 (2021-05-18)" "macOS Big Sur 10.16"

## 1 Reshape

This section introduces the `tidyverse` way of reshaping rectangular data.

We use the [Apple Mobility Trends Reports](https://covid19.apple.com/mobility) to see how travel frequency changes during the COVID-19 pandemic across the UK. After loading the packages, we import the CSV file using its URL and subset the data to cities in the UK only.

``` r
uk_mobility_raw <- read_csv("https://covid19-static.cdn-apple.com/covid19-mobility-data/2114HotfixDev8/v3/en-us/applemobilitytrends-2021-08-06.csv") %>%
  filter(country == "United Kingdom", geo_type == "city") %>%
  transmute(region, transportation_type, across(c(`2020-01-13`:ncol(.))))
```

    ## # A tibble: 48 x 574
    ##    region    transportation_ty… `2020-01-13` `2020-01-14` `2020-01-15` `2020-01-16` `2020-01-17` `2020-01-18` `2020-01-19` `2020-01-20` `2020-01-21` `2020-01-22` `2020-01-23` `2020-01-24` `2020-01-25`
    ##    <chr>     <chr>                     <dbl>        <dbl>        <dbl>        <dbl>        <dbl>        <dbl>        <dbl>        <dbl>        <dbl>        <dbl>        <dbl>        <dbl>        <dbl>
    ##  1 Belfast   driving                     100         108.         112.        124.         126.         121.          81.2        106.          111.         117.         111.        124.         121. 
    ##  2 Belfast   transit                     100         100.         104.        118.         114.         104.          92.7        104.          102.         107.         100.        111.         106. 
    ##  3 Belfast   walking                     100         117.         123.        128.         148.         179.          93.0        122.          127.         129.         120.        152.         166. 
    ##  4 Birmingh… driving                     100         104.         103.        104.         105.         103.          85.8        104.          108.         106.         107.        110.         106. 
    ##  5 Birmingh… transit                     100         102.         104.        101.          97.5         87.2         83.1        102.          103.         107.         101.         99.9         90.5
    ##  6 Birmingh… walking                     100         108.         116.        111.         125.         161.          98.3        113.          121.         126.         124.        146.         192. 
    ##  7 Bradford  driving                     100         106.         108.        104.         108.         106.          92.6        100.          104          116.         106.        113.         106. 
    ##  8 Bradford  transit                     100         107.         109.        112.         102.          98.5        101.         109.          116.         118.         113.        101.          96.4
    ##  9 Bradford  walking                     100         110.         111.         99.7        119.         120.          91.9         94.8         100.         112.         103.        107.         120. 
    ## 10 Bristol   driving                     100         104.         101.        102.         105.         104.          85.8         98.1         103.         104.         103.        112.         113. 
    ## # … with 38 more rows, and 559 more variables: 2020-01-26 <dbl>, 2020-01-27 <dbl>, 2020-01-28 <dbl>, 2020-01-29 <dbl>, 2020-01-30 <dbl>, 2020-01-31 <dbl>, 2020-02-01 <dbl>, 2020-02-02 <dbl>,
    ## #   2020-02-03 <dbl>, 2020-02-04 <dbl>, 2020-02-05 <dbl>, 2020-02-06 <dbl>, 2020-02-07 <dbl>, 2020-02-08 <dbl>, 2020-02-09 <dbl>, 2020-02-10 <dbl>, 2020-02-11 <dbl>, 2020-02-12 <dbl>,
    ## #   2020-02-13 <dbl>, 2020-02-14 <dbl>, 2020-02-15 <dbl>, 2020-02-16 <dbl>, 2020-02-17 <dbl>, 2020-02-18 <dbl>, 2020-02-19 <dbl>, 2020-02-20 <dbl>, 2020-02-21 <dbl>, 2020-02-22 <dbl>,
    ## #   2020-02-23 <dbl>, 2020-02-24 <dbl>, 2020-02-25 <dbl>, 2020-02-26 <dbl>, 2020-02-27 <dbl>, 2020-02-28 <dbl>, 2020-02-29 <dbl>, 2020-03-01 <dbl>, 2020-03-02 <dbl>, 2020-03-03 <dbl>,
    ## #   2020-03-04 <dbl>, 2020-03-05 <dbl>, 2020-03-06 <dbl>, 2020-03-07 <dbl>, 2020-03-08 <dbl>, 2020-03-09 <dbl>, 2020-03-10 <dbl>, 2020-03-11 <dbl>, 2020-03-12 <dbl>, 2020-03-13 <dbl>,
    ## #   2020-03-14 <dbl>, 2020-03-15 <dbl>, 2020-03-16 <dbl>, 2020-03-17 <dbl>, 2020-03-18 <dbl>, 2020-03-19 <dbl>, 2020-03-20 <dbl>, 2020-03-21 <dbl>, 2020-03-22 <dbl>, 2020-03-23 <dbl>,
    ## #   2020-03-24 <dbl>, 2020-03-25 <dbl>, 2020-03-26 <dbl>, 2020-03-27 <dbl>, 2020-03-28 <dbl>, 2020-03-29 <dbl>, 2020-03-30 <dbl>, 2020-03-31 <dbl>, 2020-04-01 <dbl>, 2020-04-02 <dbl>,
    ## #   2020-04-03 <dbl>, 2020-04-04 <dbl>, 2020-04-05 <dbl>, 2020-04-06 <dbl>, 2020-04-07 <dbl>, 2020-04-08 <dbl>, 2020-04-09 <dbl>, 2020-04-10 <dbl>, 2020-04-11 <dbl>, 2020-04-12 <dbl>,
    ## #   2020-04-13 <dbl>, 2020-04-14 <dbl>, 2020-04-15 <dbl>, 2020-04-16 <dbl>, 2020-04-17 <dbl>, 2020-04-18 <dbl>, 2020-04-19 <dbl>, 2020-04-20 <dbl>, 2020-04-21 <dbl>, 2020-04-22 <dbl>,
    ## #   2020-04-23 <dbl>, 2020-04-24 <dbl>, 2020-04-25 <dbl>, 2020-04-26 <dbl>, 2020-04-27 <dbl>, 2020-04-28 <dbl>, 2020-04-29 <dbl>, 2020-04-30 <dbl>, 2020-05-01 <dbl>, 2020-05-02 <dbl>,
    ## #   2020-05-03 <dbl>, 2020-05-04 <dbl>, …

### `pivot_longer`

The data is in wide format. But data analysis oftentimes requires long format, by which repeatedly measured values are stacked while a dedicated column stores the time information.

`tidyr::pivot_longer()` converts rectangular data from wide to long format. When using this function, we generally need to specify the columns that are about to be stacked.

``` r
uk_mobility_by_type <- uk_mobility_raw %>%
  pivot_longer(`2020-01-13`:ncol(.))
```

    ## # A tibble: 27,456 x 4
    ##    region  transportation_type name       value
    ##    <chr>   <chr>               <chr>      <dbl>
    ##  1 Belfast driving             2020-01-13 100  
    ##  2 Belfast driving             2020-01-14 108. 
    ##  3 Belfast driving             2020-01-15 112. 
    ##  4 Belfast driving             2020-01-16 124. 
    ##  5 Belfast driving             2020-01-17 126. 
    ##  6 Belfast driving             2020-01-18 121. 
    ##  7 Belfast driving             2020-01-19  81.2
    ##  8 Belfast driving             2020-01-20 106. 
    ##  9 Belfast driving             2020-01-21 111. 
    ## 10 Belfast driving             2020-01-22 117. 
    ## # … with 27,446 more rows
…
``` r
uk_mobility_raw %>% pivot_longer(starts_with("20"))
uk_mobility_raw %>% pivot_longer(contains("20"))
```

### `pivot_wider`

Although the data is now stacked temporally, the unit of observation is `city`-`transportation_type`-`date`, so we want to have three separate variables (columns) for three specific types of transportation (driving, transit, and walking). `pivot_wider()` does the opposite of `pivot_longer()`.

``` r
uk_mobility_panel <- uk_mobility_by_type %>%  
  pivot_wider(names_from = "transportation_type", values_from = "traffic")
```

    ## # A tibble: 9,152 x 5
    ##    region  date       driving transit walking
    ##    <chr>   <chr>        <dbl>   <dbl>   <dbl>
    ##  1 Belfast 2020-01-13   100     100     100  
    ##  2 Belfast 2020-01-14   108.    100.    117. 
    ##  3 Belfast 2020-01-15   112.    104.    123. 
    ##  4 Belfast 2020-01-16   124.    118.    128. 
    ##  5 Belfast 2020-01-17   126.    114.    148. 
    ##  6 Belfast 2020-01-18   121.    104.    179. 
    ##  7 Belfast 2020-01-19    81.2    92.7    93.0
    ##  8 Belfast 2020-01-20   106.    104.    122. 
    ##  9 Belfast 2020-01-21   111.    102.    127. 
    ## 10 Belfast 2020-01-22   117.    107.    129. 
    ## # … with 9,142 more rows
…
    ## [1] "1935-07-01"

    ## [1] "2021-09-01"

We may suspect that daily travel frequency is correlated with whether a day is during weekend and daylight saving time. The following two functions extract such information and create two new variables accordingly.

``` r
uk_mobility_by_type %>% mutate(
  which_day = wday(date, label = TRUE),
  daylight_saving = dst(date)
  )
```

    ## # A tibble: 27,456 x 6
    ##    region  transportation_type date       traffic which_day daylight_saving
    ##    <chr>   <chr>               <date>       <dbl> <ord>     <lgl>          
    ##  1 Belfast driving             2020-01-13   100   Mon       FALSE          
    ##  2 Belfast driving             2020-01-14   108.  Tue       FALSE          
    ##  3 Belfast driving             2020-01-15   112.  Wed       FALSE          
    ##  4 Belfast driving             2020-01-16   124.  Thu       FALSE          
    ##  5 Belfast driving             2020-01-17   126.  Fri       FALSE          
    ##  6 Belfast driving             2020-01-18   121.  Sat       FALSE          
    ##  7 Belfast driving             2020-01-19    81.2 Sun       FALSE          
    ##  8 Belfast driving             2020-01-20   106.  Mon       FALSE          
    ##  9 Belfast driving             2020-01-21   111.  Tue       FALSE          
    ## 10 Belfast driving             2020-01-22   117.  Wed       FALSE          
    ## # … with 27,446 more rows

### `stringr`

With `uk_mobility_by_type` on hand, we now want to join it with the UK COVID-19 data. We import an CSV file for *New Cases by Publish Date* in Upper Tier Local Authorities (UTLA).

``` r
uk_covid <- read_csv("https://api.coronavirus.data.gov.uk/v2/data?areaType=utla&metric=newCasesByPublishDate&format=csv&release=2021-08-11")
```

    ## # A tibble: 97,307 x 5
    ##    areaCode  areaName                  areaType date       newCasesByPublishDate
    ##    <chr>     <chr>                     <chr>    <date>                     <dbl>
    ##  1 E06000003 Redcar and Cleveland      utla     2021-08-11                    78
    ##  2 E06000014 York                      utla     2021-08-11                   112
    ##  3 E06000050 Cheshire West and Chester utla     2021-08-11                   116
    ##  4 E08000001 Bolton                    utla     2021-08-11                    77
    ##  5 E08000016 Barnsley                  utla     2021-08-11                   129
    ##  6 E08000031 Wolverhampton             utla     2021-08-11                   142
    ##  7 E08000032 Bradford                  utla     2021-08-11                   286
    ##  8 E09000018 Hounslow                  utla     2021-08-11                   105
    ##  9 E09000032 Wandsworth                utla     2021-08-11                   141
    ## 10 E09000033 Westminster               utla     2021-08-11                    95
    ## # … with 97,297 more rows
…
    ## [1] "The `stringr` package also have four style changers"

``` r
uk_mobility_by_type %<>% mutate(transportation_type = str_to_title(transportation_type))
```

## 3 Within-Group Operation

`uk_mobility_by_type` and `uk_covid` are panel data. Further, in `uk_mobility_by_type`, `transportation_type` is within each `region`-`date`. This section introduces the `tidyverse` way of doing within-group operations.

### `group_by`

`uk_mobility_type` does not have data for three days. Given we only have a few missing values relative to the large temporal sample size, we decide to carry past values forward to impute them.

    ## # A tibble: 144 x 4
    ##    region     transportation_type date       traffic
    ##    <chr>      <chr>               <date>       <dbl>
    ##  1 Belfast    Driving             2020-05-11      NA
    ##  2 Belfast    Driving             2020-05-12      NA
    ##  3 Belfast    Driving             2021-03-12      NA
    ##  4 Belfast    Transit             2020-05-11      NA
    ##  5 Belfast    Transit             2020-05-12      NA
    ##  6 Belfast    Transit             2021-03-12      NA
    ##  7 Belfast    Walking             2020-05-11      NA
    ##  8 Belfast    Walking             2020-05-12      NA
    ##  9 Belfast    Walking             2021-03-12      NA
    ## 10 Birmingham Driving             2020-05-11      NA
    ## # … with 134 more rows

But unless correctly grouping `uk_mobility_by_type` in R, we may use, say, London's value at *t-1* for Glasgow's missing value at *t* or use Walking at *t-1* for the missing Driving at *t*. `uk_mobility_by_type` has three levels (`region`, `transportation_type`, `date`), whereas for filling the missing values, we only need to operate across `date`. So, we group `uk_mobility_by_type` by `region` and `transportation_type` to `tidyr::fill()` within each `transportation_type` of each `city`.

``` r
uk_mobility_by_type %<>%
  group_by(region, transportation_type) %>%
  fill(traffic) %>%
  ungroup()
```

The chunk below shows a part of the filled data.

    ## # A tibble: 240 x 4
    ##    region  transportation_type date       traffic
    ##    <chr>   <chr>               <date>       <dbl>
    ##  1 Belfast Driving             2021-03-10    91.8
    ##  2 Belfast Driving             2021-03-11    95.3
    ##  3 Belfast Driving             2021-03-12    95.3
    ##  4 Belfast Driving             2021-03-13   110. 
    ##  5 Belfast Driving             2021-03-14    72.3
    ##  6 Belfast Transit             2021-03-10    37.5
    ##  7 Belfast Transit             2021-03-11    36.2
    ##  8 Belfast Transit             2021-03-12    36.2
    ##  9 Belfast Transit             2021-03-13    44.2
    ## 10 Belfast Transit             2021-03-14    27.5
    ## # … with 230 more rows
…
``` r
uk_covid %<>% group_by(areaName, date) %>%
  summarize(newCasesByPublishDate = sum(newCasesByPublishDate)) %>%
  ungroup()
```

`summarize()` is useful to show unit-specific summary statistics. If we `group_by(areaName)` and then `summarize()`, we can easily have cumulative statistics of `newCasesByPublishDate` for each area. The code below lets us know the 10 UK Upper Tier Local Authorities with the most and least total COVID-19 cases.

``` r
uk_covid %>% group_by(areaName) %>%
  summarize(total_cases = sum(newCasesByPublishDate)) %>%
  arrange(desc(total_cases))
```

    ## # A tibble: 183 x 2
    ##    areaName      total_cases
    ##    <chr>               <dbl>
    ##  1 London             911222
    ##  2 Essex              144345
    ##  3 Lancashire         142078
    ##  4 Kent               141630
    ##  5 Birmingham         134580
    ##  6 Hertfordshire      104674
    ##  7 Leeds               94144
    ##  8 Surrey              93297
    ##  9 Hampshire           89092
    ## 10 Staffordshire       80036
    ## # … with 173 more rows

``` r
uk_covid %>% group_by(areaName) %>%
  summarize(total_cases = sum(newCasesByPublishDate)) %>%
  arrange(total_cases)
```

    ## # A tibble: 183 x 2
    ##    areaName           total_cases
    ##    <chr>                    <dbl>
    ##  1 Orkney Islands             164
    ##  2 Shetland Islands           363
    ##  3 Na h-Eileanan Siar         463
    ##  4 Ceredigion                2199
    ##  5 Rutland                   2452
    ##  6 Moray                     2469
    ##  7 Argyll and Bute           2537
    ##  8 Isle of Anglesey          2687
    ##  9 Clackmannanshire          3424
    ## 10 Pembrokeshire             4025
    ## # … with 173 more rows
…
